%YAML 1.1
%TAG !u! tag:unity3d.com,2011:
--- !u!114 &11400000
MonoBehaviour:
  m_ObjectHideFlags: 0
  m_CorrespondingSourceObject: {fileID: 0}
  m_PrefabInstance: {fileID: 0}
  m_PrefabAsset: {fileID: 0}
  m_GameObject: {fileID: 0}
  m_Enabled: 1
  m_EditorHideFlags: 0
  m_Script: {fileID: 11500000, guid: 1b4fd0ebf3db6a545ba11413ebd3e8ba, type: 3}
  m_Name: Broccoli
  m_EditorClassIdentifier: 
  type: 0
  sprite: {fileID: 21300000, guid: b7a405f5e681b944b8595ec2fb6895b7, type: 3}
  isChopped: 0
