%YAML 1.1
%TAG !u! tag:unity3d.com,2011:
--- !u!114 &185199610976447416
MonoBehaviour:
  m_ObjectHideFlags: 0
  m_CorrespondingSourceObject: {fileID: 0}
  m_PrefabInstance: {fileID: 0}
  m_PrefabAsset: {fileID: 0}
  m_GameObject: {fileID: 5336020362079762912}
  m_Enabled: 1
  m_EditorHideFlags: 0
  m_Script: {fileID: 11500000, guid: 9d157121e88258f42837ac25fb7945c1, type: 3}
  m_Name: 
  m_EditorClassIdentifier: 
  type: 1
  additionalTime: 15
--- !u!1001 &6803783547178218092
PrefabInstance:
  m_ObjectHideFlags: 0
  serializedVersion: 2
  m_Modification:
    m_TransformParent: {fileID: 0}
    m_Modifications:
    - target: {fileID: 1470072515060009868, guid: be63d4c46c1eae9429a247ea09c15820,
        type: 3}
      propertyPath: m_Name
      value: TimePickup
      objectReference: {fileID: 0}
    - target: {fileID: 1831648936955133422, guid: be63d4c46c1eae9429a247ea09c15820,
        type: 3}
      propertyPath: m_RootOrder
      value: 0
      objectReference: {fileID: 0}
    - target: {fileID: 1831648936955133422, guid: be63d4c46c1eae9429a247ea09c15820,
        type: 3}
      propertyPath: m_LocalPosition.x
      value: 0
      objectReference: {fileID: 0}
    - target: {fileID: 1831648936955133422, guid: be63d4c46c1eae9429a247ea09c15820,
        type: 3}
      propertyPath: m_LocalPosition.y
      value: 0.3
      objectReference: {fileID: 0}
    - target: {fileID: 1831648936955133422, guid: be63d4c46c1eae9429a247ea09c15820,
        type: 3}
      propertyPath: m_LocalPosition.z
      value: 0
      objectReference: {fileID: 0}
    - target: {fileID: 1831648936955133422, guid: be63d4c46c1eae9429a247ea09c15820,
        type: 3}
      propertyPath: m_LocalRotation.w
      value: 1
      objectReference: {fileID: 0}
    - target: {fileID: 1831648936955133422, guid: be63d4c46c1eae9429a247ea09c15820,
        type: 3}
      propertyPath: m_LocalRotation.x
      value: 0
      objectReference: {fileID: 0}
    - target: {fileID: 1831648936955133422, guid: be63d4c46c1eae9429a247ea09c15820,
        type: 3}
      propertyPath: m_LocalRotation.y
      value: 0
      objectReference: {fileID: 0}
    - target: {fileID: 1831648936955133422, guid: be63d4c46c1eae9429a247ea09c15820,
        type: 3}
      propertyPath: m_LocalRotation.z
      value: 0
      objectReference: {fileID: 0}
    - target: {fileID: 1831648936955133422, guid: be63d4c46c1eae9429a247ea09c15820,
        type: 3}
      propertyPath: m_LocalEulerAnglesHint.x
      value: 0
      objectReference: {fileID: 0}
    - target: {fileID: 1831648936955133422, guid: be63d4c46c1eae9429a247ea09c15820,
        type: 3}
      propertyPath: m_LocalEulerAnglesHint.y
      value: 0
      objectReference: {fileID: 0}
    - target: {fileID: 1831648936955133422, guid: be63d4c46c1eae9429a247ea09c15820,
        type: 3}
      propertyPath: m_LocalEulerAnglesHint.z
      value: 0
      objectReference: {fileID: 0}
    - target: {fileID: 2309720531247135081, guid: be63d4c46c1eae9429a247ea09c15820,
        type: 3}
      propertyPath: m_text
      value: Time
      objectReference: {fileID: 0}
    m_RemovedComponents: []
  m_SourcePrefab: {fileID: 100100000, guid: be63d4c46c1eae9429a247ea09c15820, type: 3}
--- !u!1 &5336020362079762912 stripped
GameObject:
  m_CorrespondingSourceObject: {fileID: 1470072515060009868, guid: be63d4c46c1eae9429a247ea09c15820,
    type: 3}
  m_PrefabInstance: {fileID: 6803783547178218092}
  m_PrefabAsset: {fileID: 0}
